{
	"type" : "minecraft:crafting_shapeless",
	"ingredients" : [
		{
			"item" : "minecraft:potion"
		},
		{
			"item" : "minecraft:gunpowder"
		},
		{
			"item" : "minecraft:gunpowder"
		},
		{
			"item" : "minecraft:gunpowder"
		}
	],
	"result" : {
		"item" : "compacttnt:molotov"
	}
}